<?xml version="1.0" encoding="utf-8"?>
<svg viewBox="0 0 251.728 232.719" xmlns="http://www.w3.org/2000/svg">
  <defs/>
  <circle class="st0" cx="154.3" cy="137.208" r="90.6" style="opacity: 0.50; fill: rgb(255, 255, 255);"/>
  <ellipse class="st0" cx="125.1" cy="99.608" rx="90.6" ry="97" style="opacity: 0.50; fill: rgb(255, 255, 255);"/>
  <circle class="st0" cx="95.7" cy="137.208" r="90.6" style="fill: rgb(255, 255, 255); opacity: 0.50;"/>
  <circle class="st1" cx="125.1" cy="116.908" r="70.2" style="paint-order: fill; stroke-width: 13px; fill: rgb(255, 255, 255); stroke: rgb(40, 101, 151);"/>
  <path class="st2" d="M 122.22 74.996 C 123.52 79.096 124.32 83.196 125.02 87.396 C 125.72 91.496 126.32 95.596 126.72 99.796 C 127.12 103.896 127.52 107.996 127.72 112.196 C 127.92 116.296 128.02 120.396 128.02 124.596 L 122.12 118.696 C 124.22 118.696 126.32 118.696 128.42 118.796 L 134.72 118.996 C 138.92 119.196 143.12 119.496 147.42 119.896 C 151.62 120.296 155.82 120.896 160.12 121.596 C 164.32 122.396 168.52 123.196 172.82 124.496 C 168.62 125.796 164.42 126.596 160.12 127.396 C 155.92 128.096 151.72 128.696 147.42 129.096 C 143.22 129.596 139.02 129.796 134.72 129.996 L 128.42 130.196 C 126.32 130.196 124.22 130.296 122.12 130.296 L 116.22 130.296 L 116.22 124.496 C 116.22 120.396 116.32 116.296 116.52 112.096 C 116.72 107.996 117.02 103.896 117.52 99.696 C 118.02 95.596 118.52 91.496 119.22 87.296 C 120.12 83.196 120.92 79.096 122.22 74.996 Z" style="paint-order: stroke; fill-rule: nonzero; fill: rgb(53, 135, 202);"/>
</svg>